Association rules
…
### B. Correlation Plot
##################################
genres %>% 
  filter(Genres != "(no genres listed)", !is.na(Genres)) %>%
  mutate(value = 1) %>% 
  spread(Genres, value) -> spreaded_genres
spreaded_genres[is.na(spreaded_genres)] <- 0
spreaded_genres

## # A tibble: 10,680 x 22
##    MovieID Title Year  Action Adventure Animation Children Comedy Crime
##      <int> <chr> <chr>  <dbl>     <dbl>     <dbl>    <dbl>  <dbl> <dbl>
##  1       1 Toy … 1995       0         1         1        1      1     0
##  2       2 Juma… 1995       0         1         0        1      0     0
##  3       3 Grum… 1995       0         0         0        0      1     0
##  4       4 Wait… 1995       0         0         0        0      1     0
##  5       5 Fath… 1995       0         0         0        0      1     0
##  6       6 Heat… 1995       1         0         0        0      0     1
##  7       7 Sabr… 1995       0         0         0        0      1     0
##  8       8 Tom … 1995       0         1         0        1      0     0
##  9       9 Sudd… 1995       1         0         0        0      0     0
## 10      10 Gold… 1995       1         1         0        0      0     0
## # ... with 10,670 more rows, and 13 more variables: Documentary <dbl>,
## #   Drama <dbl>, Fantasy <dbl>, `Film-Noir` <dbl>, Horror <dbl>,
## #   IMAX <dbl>, Musical <dbl>, Mystery <dbl>, Romance <dbl>,
## #   `Sci-Fi` <dbl>, Thriller <dbl>, War <dbl>, Western <dbl>
…
